cpu_uart.sim/sim_1/behav/xsim/tb_soc_top.vcd
$date
   Wed May 27 12:09:52 2026
$end
$version
  2018.3
$end
$timescale
  1ps
$end
$scope module tb_soc_top $end
$var reg 1 ! clk $end
$var reg 1 " reset $end
$var wire 1 # tx_pin $end
$var reg 1 $ rx_pin $end
$var wire 1 % mosi_pin $end
$var wire 1 & miso_pin $end
$var wire 1 ' sclk_pin $end
$var wire 1 ( cs_pin $end
$var wire 1 ) i2c_scl $end
$var tri1 1 * i2c_sda $end
$var wire 32 + out_pc [31:0] $end
$var wire 32 , out_alu_result [31:0] $end
$var wire 1 - gated_spi_clk $end
$var wire 1 . gated_i2c_clk $end
$var wire 1 / gated_uart_clk $end
$var wire 1 0 uart_en $end
$var wire 1 1 spi_en $end
$var wire 1 2 i2c_en $end
$var integer 32 3 cycle_count $end
$var integer 32 4 pass_count $end
$var integer 32 5 fail_count $end
$var integer 32 6 i $end
$var parameter 32 7 SYS_CLK_MHZ [31:0] $end
$var parameter 32 8 CLK_PERIOD [31:0] $end
$var parameter 32 9 I2C_BAUD [31:0] $end
$var parameter 32 : TIMEOUT_CYCLES [31:0] $end
$scope module dut $end
$var wire 1 ; clk $end
$var wire 1 < reset $end
$var wire 1 = rx_pin $end
$var wire 1 # tx_pin $end
$var wire 1 % mosi_pin $end
$var wire 1 & miso_pin $end
$var wire 1 ' sclk_pin $end
$var wire 1 ( cs_pin $end
$var wire 1 * i2c_sda $end
$var wire 1 ) i2c_scl $end
$var wire 32 + out_pc [31:0] $end
$var wire 32 , out_alu_result [31:0] $end
$var wire 32 > haddr [31:0] $end
$var wire 32 ? hwdata [31:0] $end
$var wire 1 @ hwrite $end
$var wire 2 A htrans [1:0] $end
$var wire 3 B hsize [2:0] $end
$var wire 32 C hrdata [31:0] $end
$var wire 1 D hready $end
$var wire 1 E hsel_apb $end
$var wire 1 F hready_apb $end
$var wire 32 G hrdata_apb [31:0] $end
$var wire 1 H hsel_ram $end
$var wire 1 I hready_ram $end
$var wire 32 J hrdata_ram [31:0] $end
$var wire 1 K hsel_spi $end
$var wire 1 L hready_spi $end
$var wire 32 M hrdata_spi [31:0] $end
$var wire 1 N hsel_pmu $end
$var wire 1 O hready_pmu $end
$var wire 32 P hrdata_pmu [31:0] $end
$var wire 1 Q hsel_i2c $end
$var wire 1 R hready_i2c $end
$var wire 32 S hrdata_i2c [31:0] $end
$var wire 1 T psel $end
$var wire 1 U penable $end
$var wire 1 V pwrite $end
$var wire 32 W paddr [31:0] $end
$var wire 32 X pwdata [31:0] $end
$var wire 32 Y prdata [31:0] $end
$var wire 1 Z is_ram $end
$var wire 1 [ is_apb $end
$var wire 1 \ is_spi $end
$var wire 1 ] is_pmu $end
$var wire 1 ^ is_i2c $end
$var wire 1 _ uart_clk_en $end
$var wire 1 ` spi_clk_en $end
$var wire 1 a i2c_clk_en $end
$var wire 1 b gated_uart_clk $end
$var wire 1 c gated_spi_clk $end
$var wire 1 d gated_i2c_clk $end
$scope module my_cpu $end
$var wire 1 ; hclk $end
$var wire 1 e hresetn $end
$var wire 32 + out_pc [31:0] $end
$var wire 32 , out_alu_result [31:0] $end
$var wire 32 > haddr [31:0] $end
$var wire 32 ? hwdata [31:0] $end
$var wire 1 @ hwrite $end
$var wire 2 A htrans [1:0] $end
$var wire 3 B hsize [2:0] $end
$var wire 32 C hrdata [31:0] $end
$var wire 1 D hready $end
$var wire 32 f current_pc [31:0] $end
$var wire 32 g fetched_instruction [31:0] $end
$var wire 7 h opcode [6:0] $end
$var wire 5 i rs1_addr [4:0] $end
$var wire 5 j rs2_addr [4:0] $end
$var wire 5 k rd_addr [4:0] $end
$var wire 3 l funct3 [2:0] $end
$var wire 7 m funct7 [6:0] $end
$var wire 32 n imm_out [31:0] $end
$var wire 32 o rs1_data_out [31:0] $end
$var wire 32 p rs2_data_out [31:0] $end
$var wire 32 q alu_operand_b [31:0] $end
$var wire 32 r alu_result [31:0] $end
$var wire 1 s alu_zero $end
$var wire 1 t reg_write $end
$var wire 1 u alu_src $end
$var wire 4 v alu_ctrl [3:0] $end
$var wire 1 w branch_sig $end
$var wire 1 x take_br $end
$var wire 32 y pc_target [31:0] $end
$var wire 1 z jump $end
$var wire 1 { mem_write $end
$var wire 1 | mem_read $end
$var wire 1 } mem_to_reg $end
$var wire 32 ~ dmem_read_data [31:0] $end
$var wire 32 !! writeback_data [31:0] $end
$var wire 1 "! is_mem_req $end
$var wire 1 #! gated_reg_write $end
$scope module my_control $end
$var wire 7 h opcode [6:0] $end
$var wire 7 $! funct3 [6:0] $end
$var wire 7 m funct7 [6:0] $end
$var reg 1 %! reg_write $end
$var reg 1 &! alu_src $end
$var reg 4 '! alu_ctrl [3:0] $end
$var reg 1 (! branch $end
$var reg 1 )! mem_write $end
$var reg 1 *! mem_read $end
$var reg 1 +! mem_to_reg $end
$var reg 1 ,! jump $end
$upscope $end
$scope module pc_reg $end
$var wire 1 ; clk $end
$var wire 1 -! reset $end
$var wire 32 y pc_target [31:0] $end
$var wire 1 x take_br $end
$var wire 1 D hready $end
$var reg 32 .! pc [31:0] $end
$var wire 32 /! pc_next [31:0] $end
$upscope $end
$scope module instruction_memory $end
$var wire 32 f pc [31:0] $end
$var wire 32 g instruction [31:0] $end
$upscope $end
$scope module my_decode $end
$var wire 32 g instruction [31:0] $end
$var wire 7 h opcode [6:0] $end
$var wire 5 i rs1 [4:0] $end
$var wire 5 j rs2 [4:0] $end
$var wire 5 k rd [4:0] $end
$var wire 3 l funct3 [2:0] $end
$var wire 7 m funct7 [6:0] $end
$upscope $end
$scope module my_imm_gen $end
$var wire 32 g instruction [31:0] $end
$var reg 32 0! imm_out [31:0] $end
$var wire 7 1! opcode [6:0] $end
$upscope $end
$scope module my_alu $end
$var wire 32 o a [31:0] $end
$var wire 32 q b [31:0] $end
$var wire 4 v alu_ctrl [3:0] $end
$var reg 32 2! result [31:0] $end
$var wire 1 s zero $end
$upscope $end
$scope module my_regfile $end
$var wire 1 ; clk $end
$var wire 1 #! we $end
$var wire 5 i rs1_addr [4:0] $end
$var wire 5 j rs2_addr [4:0] $end
$var wire 5 k rd_addr [4:0] $end
$var wire 32 !! rd_data [31:0] $end
$var wire 32 o rs1_data [31:0] $end
$var wire 32 p rs2_data [31:0] $end
$var integer 32 3! i $end
$upscope $end
$upscope $end
$scope module my_bridge $end
$var wire 1 ; hclk $end
$var wire 1 4! hresetn $end
$var wire 1 E hsel $end
$var wire 32 > haddr [31:0] $end
$var wire 32 ? hwdata [31:0] $end
$var wire 1 @ hwrite $end
$var wire 2 A htrans [1:0] $end
$var reg 1 5! hreadyout $end
$var wire 32 G hrdata [31:0] $end
$var reg 1 6! psel $end
$var reg 1 7! penable $end
$var reg 1 8! pwrite $end
$var reg 32 9! paddr [31:0] $end
$var reg 32 :! pwdata [31:0] $end
$var wire 32 Y prdata [31:0] $end
$var reg 2 ;! current_state [1:0] $end
$var reg 2 <! next_state [1:0] $end
$var reg 32 =! saved_addr [31:0] $end
$var reg 1 >! saved_write $end
$var parameter 2 ?! ST_IDLE [1:0] $end
$var parameter 2 @! ST_SETUP [1:0] $end
$var parameter 2 A! ST_ACCESS [1:0] $end
$upscope $end
$scope module my_uart $end
$var wire 1 b pclk $end
$var wire 1 B! presetn $end
$var wire 32 W paddr [31:0] $end
$var wire 1 T psel $end
$var wire 1 U penable $end
$var wire 1 V pwrite $end
$var wire 32 X pwdata [31:0] $end
$var reg 32 C! prdata [31:0] $end
$var wire 1 D! pready $end
$var wire 1 = rx_pin $end
$var wire 1 # tx_pin $end
$var wire 1 E! uart_reset $end
$var reg 1 F! tx_start $end
$var reg 8 G! tx_data_in [7:0] $end
$var wire 1 H! tx_active $end
$var wire 1 I! tx_done $end
$var wire 8 J! rx_data_out [7:0] $end
$var wire 1 K! rx_done $end
$var reg 1 L! rx_data_ready $end
$scope module my_raw_uart $end
$var wire 1 b clk $end
$var wire 1 E! reset $end
$var wire 1 M! tx_start $end
$var wire 8 N! tx_data [7:0] $end
$var wire 1 H! tx_active $end
$var wire 1 I! tx_done $end
$var wire 1 # tx_pin $end
$var wire 1 = rx_pin $end
$var wire 8 J! rx_data [7:0] $end
$var wire 1 K! rx_done $end
$var parameter 32 O! CLK_FREQ [31:0] $end
$var parameter 32 P! BAUD_RATE [31:0] $end
$var parameter 32 Q! CLKS_PER_BIT [31:0] $end
$scope module tx_inst $end
$var wire 1 b clk $end
$var wire 1 E! reset $end
$var wire 1 M! tx_start $end
$var wire 8 N! tx_data [7:0] $end
$var reg 1 R! tx $end
$var reg 1 S! tx_active $end
$var reg 1 T! tx_done $end
$var reg 3 U! state [2:0] $end
$var reg 16 V! clock_count [15:0] $end
$var reg 3 W! bit_index [2:0] $end
$var reg 8 X! tx_data_reg [7:0] $end
$var parameter 32 Y! CLKS_PER_BIT [31:0] $end
$var parameter 3 Z! IDLE [2:0] $end
$var parameter 3 [! TX_START [2:0] $end
$var parameter 3 \! TX_DATA [2:0] $end
$var parameter 3 ]! TX_STOP [2:0] $end
$var parameter 3 ^! CLEANUP [2:0] $end
$upscope $end
$scope module rx_inst $end
$var wire 1 b clk $end
$var wire 1 E! reset $end
$var wire 1 = rx $end
$var reg 8 _! rx_data [7:0] $end
$var reg 1 `! rx_done $end
$var reg 3 a! state [2:0] $end
$var reg 16 b! clock_count [15:0] $end
$var reg 3 c! bit_index [2:0] $end
$var reg 1 d! rx_r1 $end
$var reg 1 e! rx_sync $end
$var parameter 32 f! CLKS_PER_BIT [31:0] $end
$var parameter 3 g! IDLE [2:0] $end
$var parameter 3 h! RX_START [2:0] $end
$var parameter 3 i! RX_DATA [2:0] $end
$var parameter 3 j! RX_STOP [2:0] $end
$var parameter 3 k! CLEANUP [2:0] $end
$upscope $end
$upscope $end
$upscope $end
$scope module my_spi $end
$var wire 1 c hclk $end
$var wire 1 l! hresetn $end
$var wire 1 K hsel $end
$var wire 32 > haddr [31:0] $end
$var wire 32 ? hwdata [31:0] $end
$var wire 1 @ hwrite $end
$var wire 2 A htrans [1:0] $end
$var wire 32 M hrdata [31:0] $end
$var wire 1 L hreadyout $end
$var wire 1 % mosi $end
$var wire 1 & miso $end
$var wire 1 ' sclk $end
$var wire 1 ( cs $end
$var reg 1 m! spi_start $end
$var reg 8 n! spi_tx_byte [7:0] $end
$var wire 8 o! spi_rx_byte [7:0] $end
$var wire 1 p! spi_done_pulse $end
$var wire 1 q! spi_reset $end
$var reg 1 r! spi_done_sticky $end
$scope module my_spi_core $end
$var wire 1 c clk $end
$var wire 1 s! start $end
$var wire 8 t! tx_byte [7:0] $end
$var wire 1 & miso $end
$var wire 1 q! reset $end
$var reg 1 u! mosi $end
$var reg 1 v! sclk $end
$var reg 1 w! cs $end
$var reg 8 x! rx_byte [7:0] $end
$var reg 1 y! done $end
$var reg 8 z! tx_shift [7:0] $end
$var reg 8 {! rx_shift [7:0] $end
$var reg 3 |! bit_count [2:0] $end
$var reg 2 }! state [1:0] $end
$var parameter 2 ~! IDLE [1:0] $end
$var parameter 2 !" TRANSFER [1:0] $end
$var parameter 2 "" WAIT_CS [1:0] $end
$var parameter 2 #" DONE [1:0] $end
$upscope $end
$upscope $end
$scope module my_pmu $end
$var wire 1 ; hclk $end
$var wire 1 $" hresetn $end
$var wire 1 N hsel $end
$var wire 32 > haddr [31:0] $end
$var wire 32 ? hwdata [31:0] $end
$var wire 1 @ hwrite $end
$var wire 2 A htrans [1:0] $end
$var wire 32 P hrdata [31:0] $end
$var wire 1 O hreadyout $end
$var wire 1 _ uart_clk_en $end
$var wire 1 ` spi_clk_en $end
$var wire 1 a i2c_clk_en $end
$var reg 32 %" clk_enable_reg [31:0] $end
$upscope $end
$scope module my_i2c $end
$var wire 1 d hclk $end
$var wire 1 &" hresetn $end
$var wire 1 Q hsel $end
$var wire 32 > haddr [31:0] $end
$var wire 32 ? hwdata [31:0] $end
$var wire 1 @ hwrite $end
$var wire 2 A htrans [1:0] $end
$var wire 32 S hrdata [31:0] $end
$var wire 1 R hreadyout $end
$var wire 1 * sda $end
$var wire 1 ) scl $end
$var reg 7 '" i2c_addr [6:0] $end
$var reg 1 (" i2c_rw $end
$var reg 8 )" i2c_tx_data [7:0] $end
$var reg 1 *" i2c_enable $end
$var wire 1 +" i2c_busy $end
$var wire 8 ," i2c_rx_data [7:0] $end
$var wire 1 -" true_busy $end
$scope module my_i2c_core $end
$var wire 1 d clk $end
$var wire 1 ." rst $end
$var wire 1 /" enable $end
$var wire 7 0" addr [6:0] $end
$var wire 8 1" data_in [7:0] $end
$var wire 1 2" rw $end
$var wire 1 +" busy $end
$var reg 8 3" data_out [7:0] $end
$var wire 1 * sda $end
$var wire 1 ) scl $end
$var reg 3 4" state [2:0] $end
$var reg 3 5" count [2:0] $end
$var reg 32 6" count_2 [31:0] $end
$var reg 32 7" count_3 [31:0] $end
$var reg 1 8" i2c_clk $end
$var reg 1 9" scl_en_clk $end
$var reg 1 :" scl_enable $end
$var reg 1 ;" sda_enable $end
$var reg 1 <" sda_out $end
$var reg 8 =" saved_addr [7:0] $end
$var reg 8 >" saved_data [7:0] $end
$var parameter 32 ?" SYS_CLK_FREQ [31:0] $end
$var parameter 32 @" I2C_BAUD_RATE [31:0] $end
$var parameter 32 A" I2C_DIVIDER [31:0] $end
$var parameter 32 B" SCL_DIVIDER [31:0] $end
$var parameter 3 C" I2C_IDLE [2:0] $end
$var parameter 3 D" I2C_START [2:0] $end
$var parameter 3 E" I2C_ADDR [2:0] $end
$var parameter 3 F" I2C_READ_ACK_1 [2:0] $end
$var parameter 3 G" I2C_DATA_TRANS [2:0] $end
$var parameter 3 H" I2C_WRITE_ACK [2:0] $end
$var parameter 3 I" I2C_READ_ACK_2 [2:0] $end
$var parameter 3 J" I2C_STOP [2:0] $end
$upscope $end
$upscope $end
$scope module my_i2c_slave $end
$var wire 1 ) scl $end
$var wire 1 * sda $end
$var reg 2 K" state [1:0] $end
$var reg 7 L" addr [6:0] $end
$var reg 1 M" rw $end
$var reg 8 N" data_in [7:0] $end
$var reg 8 O" data_out [7:0] $end
$var reg 1 P" sda_out $end
$var reg 1 Q" sda_enable $end
$var reg 1 R" sda_enable_2 $end
$var reg 3 S" count [2:0] $end
$var reg 1 T" start $end
$var reg 1 U" stop $end
$var parameter 7 V" SLAVE_ADDRESS [6:0] $end
$var parameter 8 W" DUMMY_DATA [7:0] $end
$var parameter 2 X" SLAVE_READ_ADDR [1:0] $end
$var parameter 2 Y" SLAVE_SEND_ACK_1 [1:0] $end
$var parameter 2 Z" SLAVE_DATA_TRANS [1:0] $end
$var parameter 2 [" SLAVE_SEND_ACK_2 [1:0] $end
$upscope $end
$scope module my_dmem $end
$var wire 1 ; hclk $end
$var wire 1 H hsel $end
$var wire 32 > haddr [31:0] $end
$var wire 32 ? hwdata [31:0] $end
$var wire 1 @ hwrite $end
$var wire 2 A htrans [1:0] $end
$var wire 32 J hrdata [31:0] $end
$var wire 1 I hreadyout $end
$var reg 32 \" saved_addr [31:0] $end
$var reg 1 ]" saved_write $end
$var reg 1 ^" active_transfer $end
$var integer 32 _" i $end
$upscope $end
$upscope $end
$scope task check $end
$var reg 1 `" cond $end
$var reg 256 a" label [255:0] $end
$upscope $end
$upscope $end
$enddefinitions $end
#0
$dumpvars
0!
b1100000000000000000000000000000 !!
b1 !"
1"
0"!
b11 ""
x#
1#!
b10 #"
1$
bz000 $!
0$"
x%
1%!
b0 %"
x&
1&!
0&"
x'
b1111 '!
b0 '"
x(
0(!
0("
1)
0)!
b0 )"
1*
0*!
0*"
b0 +
0+!
0+"
b1100000000000000000000000000000 ,
x,!
bx ,"
0-
1-!
0-"
0.
b0 .!
1."
0/
b0xx00000000000000000000000000x00 /!
0/"
00
b1100000000000000000000000000000 0!
b0 0"
01
b110111 1!
b0 1"
02
b1100000000000000000000000000000 2!
02"
b0 3
b100000 3!
bx 3"
b0 4
04!
b0 4"
b0 5
15!
b0 5"
bx 6
06!
b0 6"
b1010 7
07!
b0 7"
b1100100 8
08!
08"
b11110100001001000000 9
b0 9!
09"
b111101000010010000000 :
b0 :!
0:"
0;
b0 ;!
1;"
1<
b0 <!
1<"
1=
b0 =!
bx ="
b1100000000000000000000000000000 >
0>!
bx >"
b0 ?
b0 ?!
b100110001001011010000000 ?"
0@
b1 @!
b11110100001001000000 @"
b0 A
b10 A!
b101 A"
b10 B
0B!
b10 B"
b0 C
b0 C!
b0 C"
1D
1D!
b1 D"
0E
1E!
b10 E"
1F
xF!
b11 F"
b0 G
bx G!
b100 G"
0H
xH!
b101 H"
1I
xI!
b110 I"
b0 J
bx J!
b111 J"
0K
xK!
b0 K"
1L
xL!
bx L"
b0 M
xM!
xM"
0N
bx N!
b0 N"
1O
b101111101011110000100000000 O!
b11001101 O"
b0 P
b11100001000000000 P!
0P"
0Q
b1101100100 Q!
0Q"
1R
xR!
1R"
b0 S
xS!
b111 S"
0T
xT!
0T"
0U
bx U!
1U"
0V
bx V!
b1010111 V"
b0 W
bx W!
b11001101 W"
b0 X
bx X!
b0 X"
b0 Y
b1101100100 Y!
b1 Y"
0Z
b0 Z!
b10 Z"
0[
b1 [!
b11 ["
0\
b10 \!
bx \"
1]
b11 ]!
x]"
0^
b100 ^!
x^"
0_
bx _!
b1000000000000 _"
0`
x`!
x`"
0a
bx a!
bx a"
0b
bx b!
0c
bx c!
0d
xd!
0e
xe!
b0 f
b1101100100 f!
b1100000000000000000000010110111 g
b0 g!
b110111 h
b1 h!
b0 i
b10 i!
b0 j
b11 j!
b1 k
b100 k!
b0 l
0l!
b110000 m
0m!
b1100000000000000000000000000000 n
b0 n!
b0 o
bx o!
b0 p
xp!
b1100000000000000000000000000000 q
1q!
b1100000000000000000000000000000 r
0r!
0s
0s!
1t
b0 t!
1u
xu!
b1111 v
xv!
0w
xw!
xx
bx x!
b1100000000000000000000000000000 y
xy!
xz
bx z!
0{
bx {!
0|
bx |!
0}
bx }!
bz ~
b0 ~!
$end
#50000
1!
1#
b0 %"
0'
1(
1-
1.
1/
b1 3
b1 6"
b1 7"
1;
b0 C!
0F!
b0 G!
0H!
0I!
b0 J!
0K!
0L!
0M!
b0 N!
1R!
0S!
0T!
b0 U!
b0 V!
b0 W!
0^"
b0 _!
0`!
b0 a!
1b
b0 b!
1c
b0 c!
1d
1d!
b0 o
b0 p
0p!
0v!
1w!
0y!
b0 }!
#100000
0!
0-
0.
0/
0;
0b
0c
0d
#150000
1!
b0 %"
1-
1.
1/
b10 3
b10 6"
b0 7"
19"
1;
1b
1c
1d
1e!
#200000
0!
0-
0.
0/
0;
0b
0c
0d
#250000
1!
b0 %"
1-
1.
1/
b11 3
b11 6"
b1 7"
1;
1b
1c
1d
#300000
0!
0-
0.
0/
0;
0b
0c
0d
#350000
1!
b0 %"
1-
1.
1/
b100 3
b100 6"
b0 7"
09"
0:"
1;
1b
1c
1d
#400000
0!
0-
0.
0/
0;
0b
0c
0d
#450000
1!
0"
1$"
b0 %"
1&"
1)
0-
0-!
0.
0."
0/
b101 3
14!
b0 4"
b0 6"
b1 7"
18"
1;
0<
1B!
0E!
0b
0c
0d
1e
1l!
0q!
#500000
0!
0;
0b
0c
0d
#550000
1!
b1010000000000000000000000000000 !!
1%!
1&!
b1111 '!
0(!
0)!
0*!
b100 +
0+!
b1010000000000000000000000000000 ,
b100 .!
b0x0x000000000000000000000000xx00 /!
b1010000000000000000000000000000 0!
b1010000000000000000000000000000 2!
b110 3
1;
b1010000000000000000000000000000 >
b0 C
b0 J
0K
0N
0Z
0[
1\
0]
0^
0b
0c
0d
b100 f
b1010000000000000000000110110111 g
b11 k
b101000 m
b1010000000000000000000000000000 n
b1010000000000000000000000000000 q
b1010000000000000000000000000000 r
0s
1t
1u
b1111 v
b1010000000000000000000000000100 y
#600000
0!
0;
0b
0c
0d
#650000
1!
b1110000000000000000000000000000 !!
1%!
1&!
b1111 '!
0(!
0)!
0*!
b1000 +
0+!
b1110000000000000000000000000000 ,
b1000 .!
b0xxx0000000000000000000000001x00 /!
b1110000000000000000000000000000 0!
b1110000000000000000000000000000 2!
b111 3
1;
b1110000000000000000000000000000 >
b0 C
b0 J
0K
0Q
0Z
0[
0\
0]
1^
0b
0c
0d
b1000 f
b1110000000000000000001000110111 g
b100 k
b111000 m
b1110000000000000000000000000000 n
b0 o
b0 p
b1110000000000000000000000000000 q
b1110000000000000000000000000000 r
0s
1t
1u
b1111 v
b1110000000000000000000000001000 y
#700000
0!
0;
0b
0c
0d
#750000
1!
b1000000000000000000000000000000 !!
1%!
1&!
b1111 '!
0(!
0)!
0*!
b1100 +
0+!
b1000000000000000000000000000000 ,
b1100 .!
b0x0000000000000000000000000xxx00 /!
b1000000000000000000000000000000 0!
b1000000000000000000000000000000 2!
b1000 3
1;
b1000000000000000000000000000000 >
b0 C
0E
b0 J
0Q
0Z
1[
0\
0]
0^
0b
0c
0d
b1100 f
b1000000000000000000000100110111 g
b10 k
b100000 m
b1000000000000000000000000000000 n
b0 o
b0 p
b1000000000000000000000000000000 q
b1000000000000000000000000000000 r
0s
1t
1u
b1111 v
b1000000000000000000000000001100 y
#800000
0!
0;
0b
0c
0d
#850000
1!
b1 !!
1%!
1&!
b0 '!
0(!
0)!
0*!
b10000 +
0+!
b1 ,
b10000 .!
b10x0x /!
b1 0!
b10011 1!
b1 2!
b1001 3
15!
06!
07!
08!
b0 9!
b0 :!
1;
b1 >
b1100000000000000000000000000000 ?
b0 C
0E
0H
b0 J
b0 M
b0 P
b0 S
1Z
0[
0\
0]
0^
0b
0c
0d
b10000 f
b100000000001010010011 g
b10011 h
b1 j
b101 k
b0 m
b1 n
b0 o
b1100000000000000000000000000000 p
b1 q
b1 r
0s
1t
1u
b0 v
b10001 y
#900000
0!
0;
0b
0c
0d
#950000
1!
b1100000000000000000000000000000 !!
1"!
0#!
bz010 $!
0%!
1&!
b0 '!
0(!
1)!
0*!
b10100 +
0+!
b1100000000000000000000000000000 ,
b10100 .!
b1xx00 /!
b0 0!
b100011 1!
b1100000000000000000000000000000 2!
b1010 3
15!
06!
07!
08!
b0 9!
b0 :!
1;
b1100000000000000000000000000000 >
b1 ?
1@
b10 A
b0 C
0E
0H
b0 J
0K
b0 M
1N
b0 P
0Q
b0 S
0Z
0[
0\
1]
0^
0b
0c
0d
b10100 f
b10100001010000000100011 g
b100011 h
b1 i
b101 j
b0 k
b10 l
b0 n
b1100000000000000000000000000000 o
b1 p
b0 q
b1100000000000000000000000000000 r
0s
0t
1u
b10100 y
1{
#1000000
0!
0;
0b
0c
0d
#1050000
1!
b10101011 !!
0"!
1#!
bz000 $!
1%!
b1 %"
1&!
b0 '!
0(!
0)!
0*!
b11000 +
0+!
b10101011 ,
b11000 .!
1/
b0xx0xxxxx /!
10
b10101011 0!
b10011 1!
b10101011 2!
b1011 3
15!
06!
07!
08!
b0 9!
b0 :!
1;
b10101011 >
b0 ?
0@
b0 A
b0 C
0E
0H
b0 J
0K
b0 M
0N
b0 P
0Q
b0 S
1Z
0[
0\
0]
0^
1_
1b
0c
0d
b11000 f
b1010101100000000001010010011 g
b10011 h
b0 i
b1011 j
b101 k
b0 l
b101 m
b10101011 n
b0 o
b0 p
b10101011 q
b10101011 r
0s
1t
1u
xx
b11000011 y
0{
#1100000
0!
0/
0;
0b
0c
0d
#1150000
1!
b1000000000000000000000000000000 !!
1"!
0#!
bz010 $!
0%!
1&!
b0 '!
0(!
1)!
0*!
b11100 +
0+!
b1000000000000000000000000000000 ,
b11100 .!
1/
b0xxxx00 /!
b0 0!
b100011 1!
b1000000000000000000000000000000 2!
b1100 3
05!
06!
07!
08!
b0 9!
b0 :!
1;
b1 <!
b1000000000000000000000000000000 >
b10101011 ?
1@
b10 A
b0 C
0D
1E
0F
0H
b0 J
0K
b0 M
0N
b0 P
0Q
b0 S
0Z
1[
0\
0]
0^
1b
0c
0d
b11100 f
b10100010010000000100011 g
b100011 h
b10 i
b101 j
b0 k
b10 l
b0 m
b0 n
b1000000000000000000000000000000 o
b10101011 p
b0 q
b1000000000000000000000000000000 r
0s
0t
1u
b11100 y
1{
#1200000
0!
0/
0;
0b
0c
0d
#1250000
1!
1/
b1101 3
05!
16!
07!
18!
b1000000000000000000000000000000 9!
b10101011 :!
1;
b1 ;!
b10 <!
b1000000000000000000000000000000 =!
1>!
b0 C!
0F
1T
1V
b1000000000000000000000000000000 W
b10101011 X
1b
0c
0d
#1300000
0!
0/
0;
0b
0c
0d
#1350000
1!
1/
b1110 3
15!
16!
17!
18!
b1000000000000000000000000000000 9!
b10101011 :!
1;
b10 ;!
b0 <!
1D
1F
1T
1U
1V
b1000000000000000000000000000000 W
1b
0c
0d
#1400000
0!
0/
0;
0b
0c
0d
#1450000
1!
b0 !!
1"!
1%!
1&!
b0 '!
0(!
0)!
1*!
b100000 +
1+!
b1000000000000000000000000001000 ,
b100000 .!
1/
b10xx00 /!
b1000 0!
b11 1!
b1000000000000000000000000001000 2!
b1111 3
05!
06!
07!
08!
b0 9!
b0 :!
1;
b0 ;!
b1 <!
b1000000000000000000000000001000 >
b0 ?
0@
b0 C!
0D
0F
1F!
b10101011 G!
b0 J
b0 M
1M!
b10101011 N!
b0 P
b0 S
0T
0U
0V
b0 W
b0 X
1b
0c
0d
b100000 f
b100000010010001010000011 g
b11 h
b1000 j
b101 k
b1000 n
b0 p
b1000 q
b1000000000000000000000000001000 r
0s
1t
1u
b101000 y
0{
1|
1}
#1500000
0!
0/
0;
0b
0c
0d
#1550000
1!
b1 !!
1/
b10000 3
05!
16!
07!
08!
b1000000000000000000000000001000 9!
b0 :!
1;
b1 ;!
b10 <!
b1000000000000000000000000001000 =!
0>!
b1 C
b1 C!
0F
0F!
b1 G
1H!
0M!
1S!
1T
b1 U!
b1000000000000000000000000001000 W
b10101011 X!
b1 Y
1b
0c
0d
#1600000
0!
0/
b100 4
b10 5
0;
1`"
b110000101110100011001010110010000100000010010010011001001000011001000000010000001100011011011000110111101100011011010110010000001101001011100110010000000110000001000000110000101100110011101000110010101110010001000000111001001100101011100110110010101110100 a"
0b
0c
0d
#1650000
1!
0#
1#!
1/
b10001 3
15!
16!
17!
08!
b1000000000000000000000000001000 9!
b0 :!
1;
b10 ;!
b0 <!
1D
1F
0R!
1T
1U
b1 V!
b1000000000000000000000000001000 W
1b
0c
0d
#1700000
0!
0/
0;
0b
0c
0d
#1750000
1!
b11 !!
0"!
1#!
bz111 $!
1%!
1&!
b0 '!
0(!
0)!
0*!
b100100 +
0+!
b11 ,
b100100 .!
1/
b10xxx0 /!
b10 0!
b10011 1!
b11 2!
b10010 3
15!
06!
07!
08!
b0 9!
b0 :!
1;
b0 ;!
b0 <!
b11 >
b1000000000000000000000000000000 ?
b0 A
b0 C
b0 C!
1D
0E
1F
b0 G
0H
b0 J
0K
b0 M
0N
b0 P
0Q
b0 S
0T
0U
b10 V!
b0 W
b0 Y
1Z
0[
0\
0]
0^
1b
0c
0d
b100100 f
b1000101111001010010011 g
b10011 h
b101 i
b10 j
b111 l
b10 n
b1 o
b1000000000000000000000000000000 p
b10 q
b11 r
0s
1t
1u
b100110 y
0|
0}
#1800000
0!
0/
0;
0b
0c
0d
#1850000
1!
b11 !!
0#!
bz000 $!
0%!
0&!
b1000 '!
1(!
0)!
0*!
b101000 +
0+!
b11 ,
b101000 .!
1/
b10xx00 /!
b11111111111111111111111111111000 0!
b1100011 1!
b11 2!
b10011 3
15!
06!
07!
08!
b0 9!
b0 :!
1;
b11 >
b0 ?
b0 J
b0 M
b0 P
b0 S
b11 V!
1b
0c
0d
b101000 f
b11111110000000101000110011100011 g
b1100011 h
b0 j
b11001 k
b0 l
b1111111 m
b11111111111111111111111111111000 n
b11 o
b0 p
b0 q
b11 r
0s
0t
0u
b1000 v
1w
xx
b100000 y
#1900000
0!
0/
0;
0b
0c
0d
#1950000
1!
b0 !!
1"!
0#!
bz010 $!
1%!
1&!
b0 '!
0(!
0)!
1*!
b101100 +
1+!
b1000000000000000000000000001000 ,
b101100 .!
1/
b110x00 /!
b1000 0!
b11 1!
b1000000000000000000000000001000 2!
b10100 3
05!
06!
07!
08!
b0 9!
b0 :!
1;
b1 <!
b1000000000000000000000000001000 >
b10 A
b0 C
0D
1E
0F
0H
b0 J
0K
b0 M
0N
b0 P
0Q
b0 S
b100 V!
0Z
1[
0\
0]
0^
1b
0c
0d
b101100 f
b100000010010001010000011 g
b11 h
b10 i
b1000 j
b101 k
b10 l
b0 m
b1000 n
b1000000000000000000000000000000 o
b0 p
b1000 q
b1000000000000000000000000001000 r
0s
1t
1u
b0 v
0w
xx
b110100 y
1|
1}
#2000000
0!
0/
0;
0b
0c
0d
#2050000
1!
b1 !!
1/
b10101 3
05!
16!
07!
08!
b1000000000000000000000000001000 9!
b0 :!
1;
b1 ;!
b10 <!
b1 C
b1 C!
0F
b1 G
1T
b101 V!
b1000000000000000000000000001000 W
b1 Y
1b
0c
0d
#2100000
0!
0/
0;
0b
0c
0d
#2150000
1!
1#!
1/
b10110 3
15!
16!
17!
08!
b1000000000000000000000000001000 9!
b0 :!
1;
b10 ;!
b0 <!
1D
1F
1T
1U
b110 V!
b1000000000000000000000000001000 W
1b
0c
0d
#2200000
0!
0/
0;
0b
0c
0d
